abz5	10558
abz6	7808
abz7	12561
abz8	13110
abz9	12813
ft06	265
ft10	7501
ft20	14279
la01	4832
la02	4468
la03	4175
la04	4331
la05	4094
la06	8694
la07	8196
la08	8176
la09	9452
la10	9230
la11	14801
la12	12484
la13	14317
la14	15595
la15	15555
la16	7393
la17	6555
la18	7055
la19	7327
la20	7427
la21	12953
la22	12106
la23	13393
la24	12583
la25	12465
la26	20234
la27	20844
la28	21644
la29	20404
la30	22333
la31	39007
la32	42523
la33	41247
la34	43824
la35	44059
la36	17073
la37	17886
la38	16621
la39	16733
la40	16618
orb01	8306
orb02	7353
orb03	8280
orb04	8270
orb05	7045
orb06	8418
orb07	3296
orb08	7133
orb09	7582
orb10	8043
swv01	20688
swv02	21682
swv03	23266
swv04	24271
swv05	23562
swv06	28863
swv07	27385
swv08	32976
swv09	31841
swv10	31946
swv11	108842
swv12	109128
swv13	133057
swv14	126333
swv15	131037
swv16	113398
swv17	110145
swv18	109926
swv19	115925
swv20	109742
yn1	17317
yn2	18442
yn3	17658
yn4	19107