abz5	10558
abz8	13110
ft10	7501
la02	4468
la04	4331
la07	8196
la13	14317
la15	15555
la18	7055
la19	7327
la23	13393
la24	12583
la27	20844
la28	21644
la32	42523
la33	41247
la34	43824
la37	17886
la39	16733
orb01	8306
orb04	8270
orb05	7045
orb08	7133
swv02	21682
swv05	23562
swv06	28863
swv10	31946
swv13	133057
swv18	109926
swv19	115925
yn2 18442
yn3 17658