a280.xml
att48.xml
bayg29.xml
bays29.xml
berlin52.xml
bier127.xml
brazil58.xml
brg180.xml
burma14.xml
ch130.xml
ch150.xml
d198.xml
d493.xml
dantzig42.xml
eil101.xml
eil51.xml
eil76.xml
fl417.xml
fri26.xml
gil262.xml
gr17.xml
gr21.xml
gr24.xml
gr48.xml
gr96.xml
gr120.xml
gr137.xml
gr202.xml
gr229.xml
gr431.xml
hk48.xml
kroA100.xml
kroA150.xml
kroA200.xml
kroB100.xml
kroB150.xml
kroB200.xml
kroC100.xml
kroD100.xml
kroE100.xml
lin105.xml
lin318.xml
pcb442.xml
pr76.xml
pr107.xml
pr124.xml
pr136.xml
pr144.xml
pr152.xml
pr226.xml
pr264.xml
pr299.xml
pr439.xml
rat195.xml
rat99.xml
rd100.xml
rd400.xml
si175.xml
st70.xml
swiss42.xml
ts225.xml
tsp225.xml
u159.xml
ulysses16.xml
ulysses22.xml